{
    "count": 24,
    "limit": 20,
    "page": 2,
    "pages": 2,
    "orgUnitTypes": [{
            "created_at": 1561062550.986341,
            "depth": 2,
            "id": 1,
            "units_count": 9048,
            "reference_forms": [
                {
                    "id": 1,
                    "name": "FORM_A",
                    "form_id": "form_1",
                    "projects": [],
                    "created_at": 1565610572.35755,
                    "updated_at": 1637667618.966755
                }
            ],
            "updated_at": 1629460688.557815,
            "name": "Type1",
            "short_name": "T1",
            "projects": [{
                    "created_at": 1569421335.103325,
                    "id": 4,
                    "updated_at": 1593536394.803384,
                    "name": "Projet 4",
                    "needs_authentication": true
                },
                {
                    "created_at": 1565605612.058998,
                    "id": 2,
                    "updated_at": 1600269581.499623,
                    "name": "Projet 2",
                    "needs_authentication": true
                },
                {
                    "created_at": 1569421302.872019,
                    "id": 3,
                    "updated_at": 1619018408.484339,
                    "name": "Projet 3",
                    "needs_authentication": true
                },
                {
                    "created_at": 1565543915.39389,
                    "id": 1,
                    "updated_at": 1619796925.963041,
                    "name": "Projet 1",
                    "needs_authentication": true
                },
                {
                    "created_at": 1608902722.82422,
                    "id": 5,
                    "updated_at": 1626968563.310184,
                    "name": "Projet 5",
                    "needs_authentication": false
                }
            ],
            "sub_unit_types": [{
                    "created_at": 1560778833.738812,
                    "id": 2,
                    "updated_at": 1610270958.146618,
                    "name": "Type2",
                    "short_name": "T2",
                    "depth": null
                },
                {
                    "created_at": 1561062550.993334,
                    "id": 5,
                    "updated_at": 1569422124.21461,
                    "name": "Type5",
                    "short_name": "T5",
                    "depth": null
                },
                {
                    "created_at": 1565613642.291168,
                    "id": 13,
                    "updated_at": 1574693825.4542,
                    "name": "Type13",
                    "short_name": "T13",
                    "depth": null
                }
            ],
            "allow_creating_sub_unit_types": [{
                    "created_at": 1560778833.738812,
                    "id": 2,
                    "updated_at": 1610270958.146618,
                    "name": "Type2",
                    "short_name": "T2",
                    "depth": null
                },
                {
                    "created_at": 1561062550.993334,
                    "id": 5,
                    "updated_at": 1569422124.21461,
                    "name": "Type5",
                    "short_name": "T5",
                    "depth": null
                },
                {
                    "created_at": 1565613642.291168,
                    "id": 13,
                    "updated_at": 1574693825.4542,
                    "name": "Type13",
                    "short_name": "T13",
                    "depth": null
                }
            ]
        },
        {
            "created_at": 1560778833.738812,
            "id": 2,
            "units_count": 0,
            "reference_forms": [],
            "updated_at": 1610270958.146618,
            "name": "Type2",
            "short_name": "T2",
            "projects": [{
                    "created_at": 1569421335.103325,
                    "id": 4,
                    "updated_at": 1593536394.803384,
                    "name": "Projet 4",
                    "needs_authentication": true
                },
                {
                    "created_at": 1565605612.058998,
                    "id": 2,
                    "updated_at": 1600269581.499623,
                    "name": "Projet 2",
                    "needs_authentication": true
                },
                {
                    "created_at": 1569421302.872019,
                    "id": 3,
                    "updated_at": 1619018408.484339,
                    "name": "Projet 3",
                    "needs_authentication": true
                },
                {
                    "created_at": 1565543915.39389,
                    "id": 1,
                    "updated_at": 1619796925.963041,
                    "name": "Projet 1",
                    "needs_authentication": true
                },
                {
                    "created_at": 1608902722.82422,
                    "id": 5,
                    "updated_at": 1626968563.310184,
                    "name": "Projet 5",
                    "needs_authentication": false
                }
            ],
            "sub_unit_types": [{
                "created_at": 1561062551.004035,
                "id": 11,
                "updated_at": 1569425808.955913,
                "name": "Type11",
                "short_name": "T11",
                "depth": null
            }],
            "allow_creating_sub_unit_types": [{
                "created_at": 1561062551.004035,
                "id": 11,
                "updated_at": 1569425808.955913,
                "name": "Type11",
                "short_name": "T11",
                "depth": null
            }],
            "depth": null
        },
        {
            "created_at": 1625488634.876034,
            "depth": 1,
            "id": 3,
            "units_count": 51,
            "reference_forms": [],
            "updated_at": 1625488634.876064,
            "name": "Type3",
            "short_name": "T3",
            "projects": [{
                "id": 16,
                "name": "Projet 16"
            }],
            "sub_unit_types": [],
            "allow_creating_sub_unit_types": []
        },
        {
            "created_at": 1625488660.719014,
            "depth": 3,
            "id": 4,
            "units_count": 4549,
            "reference_forms": [],
            "updated_at": 1625488660.71904,
            "name": "Type4",
            "short_name": "T4",
            "projects": [{
                "created_at": 1625476574.863976,
                "id": 16,
                "updated_at": 1625476574.863997,
                "name": "Projet 16",
                "needs_authentication": false
            }],
            "sub_unit_types": [],
            "allow_creating_sub_unit_types": []
        }
    ],
    "has_next": false,
    "has_previous": true
}