{
    "count": 24,
    "limit": 20,
    "page": 1,
    "pages": 2,
    "orgUnitTypes": [{
            "created_at": 1561062550.986341,
            "depth": 2,
            "id": 1,
            "units_count": 9048,
            "reference_forms": [
                {
                    "id": 1,
                    "possible_fields": [
                        {
                            "name": "first_name",
                            "type": "text",
                            "label": "First Name"
                        },
                        {
                            "name": "middle_name",
                            "type": "text",
                            "label": "Middle Name"
                        },
                        {
                            "name": "last_name",
                            "type": "text",
                            "label": "Last Name"
                        }
                    ],
                    "name": "FORM_A",
                    "form_id": "form_1",
                    "device_field": "",
                    "location_field": "",
                    "org_unit_types": [
                        {
                            "id": 1,
                            "name": "Hyrule",
                            "short_name": "Hyrule",
                            "created_at": 0,
                            "updated_at": 1632473935.62488,
                            "depth": 1,
                            "sub_unit_types": [
                                {
                                    "id": 11,
                                    "name": "Field",
                                    "short_name": "Field",
                                    "created_at": 1561062550.993334,
                                    "updated_at": 1632133245.216007,
                                    "depth": 2
                                },
                                {
                                    "id": 10,
                                    "name": "Ridge",
                                    "short_name": "Ridge",
                                    "created_at": 1561062550.986341,
                                    "updated_at": 1632479907.326365,
                                    "depth": 2
                                }
                            ]
                        }
                    ],
                    "projects": [
                        {
                            "id": 4,
                            "name": "WASH",
                            "app_id": "org.bluesquarehub.iaso.ihpwash",
                            "feature_flags": [
                                {
                                    "id": 2,
                                    "name": "gps tracking",
                                    "code": "GPS_TRACKING",
                                    "description": "",
                                    "created_at": 1590486410.557356,
                                    "updated_at": 1590486410.557379
                                },
                                {
                                    "id": 4,
                                    "name": "Authentification",
                                    "code": "REQUIRE_AUTHENTICATION",
                                    "description": "Require authentication to download & refresh data ( org. units, forms, etc ) in the mobile app",
                                    "created_at": 1592928849.711209,
                                    "updated_at": 1608655349.945807
                                },
                                {
                                    "id": 3,
                                    "name": "GPS à chaque formulaire",
                                    "code": "TAKE_GPS_ON_FORM",
                                    "description": "",
                                    "created_at": 1590486429.44506,
                                    "updated_at": 1608655380.590146
                                }
                            ],
                            "created_at": 1565605612.058998,
                            "updated_at": 1600269581.499623,
                            "needs_authentication": true
                        },
                        {
                            "app_id": "app_id_2",
                            "created_at": 1643364006.484612,
                            "feature_flags": [
                                {
                                    "id": 5,
                                    "code": "FORMS_AUTO_UPLOAD",
                                    "name": "Upload auto des f. finalisés",
                                    "description": "Uploader les formulaires dès qu'une connexion internet se présente. Upload immédiat des formulaires \"finalisés\"",
                                    "created_at": 1593012611.488891,
                                    "updated_at": 1608655329.956441
                                },
                                {
                                    "id": 2,
                                    "code": "GPS_TRACKING",
                                    "name": "gps tracking",
                                    "description": "",
                                    "created_at": 1590486410.557356,
                                    "updated_at": 1590486410.557379
                                }
                            ],
                            "id": 1,
                            "name": "Test2.35.3",
                            "needs_authentication": false,
                            "updated_at": 1643364006.59441
                        }
                    ],
                    "period_type": "MONTH",
                    "single_per_period": false,
                    "periods_before_allowed": 3,
                    "periods_after_allowed": 3,
                    "latest_form_version": {
                        "id": 6,
                        "version_id": "version_id_test",
                        "file": "LINK TO FILE",
                        "xls_file": "LINK TO XLS FILE",
                        "created_at": 1576686655.95713,
                        "updated_at": 1576686655.957162
                    },
                    "instances_count": 5,
                    "instance_updated_at": 1571346521.795495,
                    "created_at": 1565610572.35755,
                    "updated_at": 1637667618.966755,
                    "deleted_at": null,
                    "derived": false,
                    "label_keys": []
                }
            ],
            "updated_at": 1629460688.557815,
            "name": "Type1",
            "short_name": "T1",
            "projects": [{
                    "created_at": 1569421335.103325,
                    "id": 4,
                    "updated_at": 1593536394.803384,
                    "name": "Projet 4",
                    "needs_authentication": true
                },
                {
                    "created_at": 1565605612.058998,
                    "id": 2,
                    "updated_at": 1600269581.499623,
                    "name": "Projet 2",
                    "needs_authentication": true
                },
                {
                    "created_at": 1569421302.872019,
                    "id": 3,
                    "updated_at": 1619018408.484339,
                    "name": "Projet 3",
                    "needs_authentication": true
                },
                {
                    "created_at": 1565543915.39389,
                    "id": 1,
                    "updated_at": 1619796925.963041,
                    "name": "Projet 1",
                    "needs_authentication": true
                },
                {
                    "created_at": 1608902722.82422,
                    "id": 5,
                    "updated_at": 1626968563.310184,
                    "name": "Projet 5",
                    "needs_authentication": false
                }
            ],
            "sub_unit_types": [{
                    "created_at": 1560778833.738812,
                    "id": 2,
                    "updated_at": 1610270958.146618,
                    "name": "Type2",
                    "short_name": "T2",
                    "depth": null
                },
                {
                    "created_at": 1561062550.993334,
                    "id": 5,
                    "updated_at": 1569422124.21461,
                    "name": "Type5",
                    "short_name": "T5",
                    "depth": null
                },
                {
                    "created_at": 1565613642.291168,
                    "id": 13,
                    "updated_at": 1574693825.4542,
                    "name": "Type13",
                    "short_name": "T13",
                    "depth": null
                }
            ],
            "allow_creating_sub_unit_types": [{
                    "created_at": 1560778833.738812,
                    "id": 2,
                    "updated_at": 1610270958.146618,
                    "name": "Type2",
                    "short_name": "T2",
                    "depth": null
                },
                {
                    "created_at": 1561062550.993334,
                    "id": 5,
                    "updated_at": 1569422124.21461,
                    "name": "Type5",
                    "short_name": "T5",
                    "depth": null
                },
                {
                    "created_at": 1565613642.291168,
                    "id": 13,
                    "updated_at": 1574693825.4542,
                    "name": "Type13",
                    "short_name": "T13",
                    "depth": null
                }
            ]
        },
        {
            "created_at": 1560778833.738812,
            "id": 2,
            "units_count": 0,
            "reference_forms": [],
            "updated_at": 1610270958.146618,
            "name": "Type2",
            "short_name": "T2",
            "projects": [{
                    "created_at": 1569421335.103325,
                    "id": 4,
                    "updated_at": 1593536394.803384,
                    "name": "Projet 4",
                    "needs_authentication": true
                },
                {
                    "created_at": 1565605612.058998,
                    "id": 2,
                    "updated_at": 1600269581.499623,
                    "name": "Projet 2",
                    "needs_authentication": true
                },
                {
                    "created_at": 1569421302.872019,
                    "id": 3,
                    "updated_at": 1619018408.484339,
                    "name": "Projet 3",
                    "needs_authentication": true
                },
                {
                    "created_at": 1565543915.39389,
                    "id": 1,
                    "updated_at": 1619796925.963041,
                    "name": "Projet 1",
                    "needs_authentication": true
                },
                {
                    "created_at": 1608902722.82422,
                    "id": 5,
                    "updated_at": 1626968563.310184,
                    "name": "Projet 5",
                    "needs_authentication": false
                }
            ],
            "sub_unit_types": [{
                "created_at": 1561062551.004035,
                "id": 11,
                "updated_at": 1569425808.955913,
                "name": "Type11",
                "short_name": "T11",
                "depth": null
            }],
            "allow_creating_sub_unit_types": [{
                "created_at": 1561062551.004035,
                "id": 11,
                "updated_at": 1569425808.955913,
                "name": "Type11",
                "short_name": "T11",
                "depth": null
            }],
            "depth": null
        },
        {
            "created_at": 1625488634.876034,
            "depth": 1,
            "id": 3,
            "units_count": 51,
            "reference_forms": [],
            "updated_at": 1625488634.876064,
            "name": "Type3",
            "short_name": "T3",
            "projects": [{
                "id": 16,
                "name": "Projet 16"
            }],
            "sub_unit_types": [],
            "allow_creating_sub_unit_types": []
        },
        {
            "created_at": 1625488660.719014,
            "depth": 3,
            "id": 4,
            "units_count": 4549,
            "reference_forms": [],
            "updated_at": 1625488660.71904,
            "name": "Type4",
            "short_name": "T4",
            "projects": [{
                "created_at": 1625476574.863976,
                "id": 16,
                "updated_at": 1625476574.863997,
                "name": "Projet 16",
                "needs_authentication": false
            }],
            "sub_unit_types": [],
            "allow_creating_sub_unit_types": []
        },
        {
            "created_at": 1561062550.993334,
            "id": 5,
            "units_count": 121,
            "reference_forms": [],
            "updated_at": 1569422124.21461,
            "name": "Type5",
            "short_name": "T5",
            "projects": [{
                    "created_at": 1569421335.103325,
                    "id": 4,
                    "updated_at": 1593536394.803384,
                    "name": "Projet 4",
                    "needs_authentication": true
                },
                {
                    "created_at": 1565605612.058998,
                    "id": 2,
                    "updated_at": 1600269581.499623,
                    "name": "Projet 2",
                    "needs_authentication": true
                },
                {
                    "created_at": 1565543915.39389,
                    "id": 1,
                    "updated_at": 1619796925.963041,
                    "name": "Projet 1",
                    "needs_authentication": true
                }
            ],
            "sub_unit_types": [],
            "depth": null,
            "allow_creating_sub_unit_types": []
        },
        {
            "created_at": 1570547452.252486,
            "depth": 0,
            "id": 6,
            "units_count": 119,
            "reference_forms": [],
            "updated_at": 1593418505.245559,
            "name": "Type6",
            "short_name": "T6",
            "projects": [{
                    "created_at": 1569421335.103325,
                    "id": 4,
                    "updated_at": 1593536394.803384,
                    "name": "Projet 4",
                    "needs_authentication": true
                },
                {
                    "created_at": 1565605612.058998,
                    "id": 2,
                    "updated_at": 1600269581.499623,
                    "name": "Projet 2",
                    "needs_authentication": true
                },
                {
                    "created_at": 1569421302.872019,
                    "id": 3,
                    "updated_at": 1619018408.484339,
                    "name": "Projet 3",
                    "needs_authentication": true
                },
                {
                    "created_at": 1565543915.39389,
                    "id": 1,
                    "updated_at": 1619796925.963041,
                    "name": "Projet 1",
                    "needs_authentication": true
                }
            ],
            "sub_unit_types": [],
            "allow_creating_sub_unit_types": []
        },
        {
            "created_at": 1625059281.071056,
            "id": 7,
            "units_count": 1332,
            "reference_forms": [],
            "updated_at": 1625059281.071086,
            "name": "Type7",
            "short_name": "T7",
            "projects": [{
                "created_at": 1565543915.39389,
                "id": 1,
                "updated_at": 1619796925.963041,
                "name": "Projet 1",
                "needs_authentication": true
            }],
            "sub_unit_types": [],
            "depth": null,
            "allow_creating_sub_unit_types": []
        },
        {
            "created_at": 1621340299.973162,
            "id": 8,
            "units_count": 2668,
            "reference_forms": [],
            "updated_at": 1621340299.973194,
            "name": "Type8",
            "short_name": "T8",
            "projects": [{
                "created_at": 1565543915.39389,
                "id": 1,
                "updated_at": 1619796925.963041,
                "name": "Projet 1",
                "needs_authentication": true
            }],
            "sub_unit_types": [],
            "depth": null,
            "allow_creating_sub_unit_types": []
        },
        {
            "created_at": 1561062550.970094,
            "depth": 1,
            "id": 9,
            "units_count": 26,
            "reference_forms": [],
            "updated_at": 1571405714.116637,
            "name": "Type9",
            "short_name": "T9",
            "projects": [{
                    "created_at": 1569421335.103325,
                    "id": 4,
                    "updated_at": 1593536394.803384,
                    "name": "Projet 4",
                    "needs_authentication": true
                },
                {
                    "created_at": 1565605612.058998,
                    "id": 2,
                    "updated_at": 1600269581.499623,
                    "name": "Projet 2",
                    "needs_authentication": true
                },
                {
                    "created_at": 1569421302.872019,
                    "id": 3,
                    "updated_at": 1619018408.484339,
                    "name": "Projet 3",
                    "needs_authentication": true
                },
                {
                    "created_at": 1565543915.39389,
                    "id": 1,
                    "updated_at": 1619796925.963041,
                    "name": "Projet 1",
                    "needs_authentication": true
                }
            ],
            "sub_unit_types": [{
                    "created_at": 1561020481.959638,
                    "depth": 3,
                    "id": 14,
                    "updated_at": 1610270966.540582,
                    "name": "Type14",
                    "short_name": "T14"
                },
                {
                    "created_at": 1561062550.993334,
                    "id": 5,
                    "updated_at": 1569422124.21461,
                    "name": "Type5",
                    "short_name": "T5",
                    "depth": null
                }
            ],
            "allow_creating_sub_unit_types": []
        },
        {
            "created_at": 1625488636.178011,
            "depth": 2,
            "id": 10,
            "units_count": 663,
            "reference_forms": [],
            "updated_at": 1625488636.178039,
            "name": "Type10",
            "short_name": "T10",
            "projects": [{
                "created_at": 1625476574.863976,
                "id": 16,
                "updated_at": 1625476574.863997,
                "name": "Projet 16",
                "feature_flags": [],
                "needs_authentication": false
            }],
            "sub_unit_types": [],
            "allow_creating_sub_unit_types": []
        },
        {
            "created_at": 1561062551.004035,
            "id": 11,
            "units_count": 0,
            "reference_forms": [],
            "updated_at": 1569425808.955913,
            "name": "Type11",
            "short_name": "T11",
            "projects": [{
                    "created_at": 1569421335.103325,
                    "id": 4,
                    "updated_at": 1593536394.803384,
                    "name": "Projet 4",
                    "needs_authentication": true
                },
                {
                    "created_at": 1565605612.058998,
                    "id": 2,
                    "updated_at": 1600269581.499623,
                    "name": "Projet 2",
                    "needs_authentication": true
                },
                {
                    "created_at": 1569421302.872019,
                    "id": 3,
                    "updated_at": 1619018408.484339,
                    "name": "Projet 3",
                    "needs_authentication": true
                },
                {
                    "created_at": 1565543915.39389,
                    "id": 1,
                    "updated_at": 1619796925.963041,
                    "name": "Projet 1",
                    "needs_authentication": true
                }
            ],
            "sub_unit_types": [{
                "created_at": 1561062551.004035,
                "id": 11,
                "updated_at": 1569425808.955913,
                "name": "Type11",
                "short_name": "T11",
                "depth": null
            }],
            "depth": null,
            "allow_creating_sub_unit_types": []
        },
        {
            "created_at": 1625737697.200525,
            "depth": 0,
            "id": 12,
            "units_count": 0,
            "reference_forms": [],
            "updated_at": 1625737697.200548,
            "name": "Type12",
            "short_name": "T12",
            "projects": [{
                "created_at": 1569421302.872019,
                "id": 3,
                "updated_at": 1619018408.484339,
                "name": "Projet 3",
                "needs_authentication": true
            }],
            "sub_unit_types": [{
                "created_at": 1625488634.876034,
                "depth": 1,
                "id": 3,
                "updated_at": 1625488634.876064,
                "name": "Type3",
                "short_name": "T3"
            }],
            "allow_creating_sub_unit_types": []
        },
        {
            "created_at": 1565613642.291168,
            "id": 13,
            "units_count": 0,
            "reference_forms": [],
            "updated_at": 1574693825.4542,
            "name": "Type13",
            "short_name": "T13",
            "projects": [{
                    "created_at": 1569421335.103325,
                    "id": 4,
                    "updated_at": 1593536394.803384,
                    "name": "Projet 4",
                    "needs_authentication": true
                },
                {
                    "created_at": 1565605612.058998,
                    "id": 2,
                    "updated_at": 1600269581.499623,
                    "name": "Projet 2",
                    "needs_authentication": true
                },
                {
                    "created_at": 1569421302.872019,
                    "id": 3,
                    "updated_at": 1619018408.484339,
                    "name": "Projet 3",
                    "needs_authentication": true
                },
                {
                    "created_at": 1565543915.39389,
                    "id": 1,
                    "updated_at": 1619796925.963041,
                    "name": "Projet 1",
                    "needs_authentication": true
                }
            ],
            "sub_unit_types": [],
            "depth": null,
            "allow_creating_sub_unit_types": []
        },
        {
            "created_at": 1561020481.959638,
            "depth": 3,
            "id": 15,
            "units_count": 59,
            "reference_forms": [],
            "updated_at": 1610271966.540582,
            "name": "Type15",
            "short_name": "T15",
            "projects": [{
                    "created_at": 156942335.103325,
                    "id": 4,
                    "updated_at": 1593536394.803384,
                    "name": "Projet 4",
                    "needs_authentication": true
                },
                {
                    "created_at": 1565605612.058998,
                    "id": 2,
                    "updated_at": 1600269581.499623,
                    "name": "Projet 2",
                    "needs_authentication": true
                },
                {
                    "created_at": 1565543915.39389,
                    "id": 1,
                    "updated_at": 1619796925.963041,
                    "name": "Projet 1",
                    "needs_authentication": true
                }
            ],
            "sub_unit_types": [{
                "created_at": 1561062550.986341,
                "depth": 2,
                "id": 1,
                "updated_at": 1629460688.557815,
                "name": "Type1",
                "short_name": "T1"
            }],
            "allow_creating_sub_unit_types": []
        },
        {
            "created_at": 1625737697.200525,
            "depth": 0,
            "id": 16,
            "units_count": 0,
            "reference_forms": [],
            "updated_at": 1625737697.200548,
            "name": "Type16",
            "short_name": "T16",
            "projects": [{
                "created_at": 1569421302.872019,
                "id": 4,
                "updated_at": 1619018408.484339,
                "name": "Projet 4",
                "needs_authentication": true
            }],
            "sub_unit_types": [{
                "created_at": 1625488634.876034,
                "depth": 1,
                "id": 3,
                "updated_at": 1625488634.876064,
                "name": "Type3",
                "short_name": "T3"
            }],
            "allow_creating_sub_unit_types": []
        },
        {
            "created_at": 1625737697.200525,
            "depth": 0,
            "id": 17,
            "units_count": 0,
            "reference_forms": [],
            "updated_at": 1625735697.200548,
            "name": "Type17",
            "short_name": "T17",
            "projects": [{
                "created_at": 1569421302.872019,
                "id": 3,
                "updated_at": 1619018408.484339,
                "name": "Projet 3",
                "needs_authentication": true
            }],
            "sub_unit_types": [],
            "allow_creating_sub_unit_types": []
        },
        {
            "created_at": 1625737697.200525,
            "depth": 0,
            "id": 18,
            "units_count": 0,
            "reference_forms": [],
            "updated_at": 1625735697.200548,
            "name": "Type18",
            "short_name": "T18",
            "projects": [{
                "created_at": 1569421302.872019,
                "id": 3,
                "updated_at": 1619018408.484339,
                "name": "Projet 3",
                "needs_authentication": true
            }],
            "sub_unit_types": [],
            "allow_creating_sub_unit_types": []
        },
        {
            "created_at": 1625737697.200525,
            "depth": 0,
            "id": 19,
            "units_count": 0,
            "reference_forms": [],
            "updated_at": 1625735697.200548,
            "name": "Type19",
            "short_name": "T19",
            "projects": [{
                "created_at": 1569421302.872019,
                "id": 3,
                "updated_at": 1619018408.484339,
                "name": "Projet 3",
                "needs_authentication": true
            }],
            "sub_unit_types": [],
            "allow_creating_sub_unit_types": []
        },
        {
            "created_at": 1625737697.200525,
            "depth": 0,
            "id": 20,
            "units_count": 0,
            "reference_forms": [],
            "updated_at": 1625735697.200548,
            "name": "Type20",
            "short_name": "T20",
            "projects": [{
                "created_at": 1569421302.872019,
                "id": 3,
                "updated_at": 1619018408.484339,
                "name": "Projet 3",
                "needs_authentication": true
            }],
            "sub_unit_types": [],
            "allow_creating_sub_unit_types": []
        },
        {
            "created_at": 1625737697.200525,
            "depth": 0,
            "id": 14,
            "units_count": 0,
            "reference_forms": [],
            "updated_at": 1625735687.200548,
            "name": "Type15",
            "short_name": "T15",
            "projects": [{
                "created_at": 1569421302.872019,
                "id": 3,
                "updated_at": 1619018408.484339,
                "name": "Projet 3",
                "needs_authentication": true
            }],
            "sub_unit_types": [],
            "allow_creating_sub_unit_types": []
        }
    ],
    "has_next": true,
    "has_previous": false
}