{
    "count": 13,
    "has_next": true,
    "has_previous": false,
    "limit": 10,
    "page": 1,
    "pages": 2,
    "projects": [{
            "app_id": "app_id_2",
            "created_at": 1643364006.484612,
            "feature_flags": [{
                    "id": 5,
                    "code": "FORMS_AUTO_UPLOAD",
                    "name": "Automatic upload of finalized forms, GPS Tracking",
                    "description": "Uploader les formulaires dès qu'une connexion internet se présente. Upload immédiat des formulaires \"finalisés\"",
                    "created_at": 1593012611.488891,
                    "updated_at": 1608655329.956441
                },
                {
                    "id": 2,
                    "code": "GPS_TRACKING",
                    "name": "GPS Tracking",
                    "description": "",
                    "created_at": 1590486410.557356,
                    "updated_at": 1590486410.557379
                }
            ],
            "id": 1,
            "name": "Test2.35.3",
            "needs_authentication": false,
            "updated_at": 1643364006.59441,
            "color": "#000000"
        },
        {
            "app_id": "app_id_1",
            "created_at": 1643364006.484612,
            "feature_flags": [],
            "id": 2,
            "name": "Projet 2",
            "needs_authentication": false,
            "updated_at": 1643364006.59441,
            "color": "#000000"
        },
        {
            "app_id": "app_id_3",
            "created_at": 1643364006.484612,
            "feature_flags": [],
            "id": 3,
            "name": "Projet 3",
            "needs_authentication": false,
            "updated_at": 1643364006.59441,
            "color": "#000000"
        },
        {
            "app_id": "app_id_4",
            "created_at": 1643364006.484612,
            "feature_flags": [],
            "id": 4,
            "name": "Projet 4",
            "needs_authentication": false,
            "updated_at": 1643364006.59441,
            "color": "#000000"
        },
        {
            "app_id": "app_id_5",
            "created_at": 1643364006.484612,
            "feature_flags": [],
            "id": 5,
            "name": "Projet 5",
            "needs_authentication": false,
            "updated_at": 1643364006.59441,
            "color": "#000000"
        },
        {
            "app_id": "app_id_6",
            "created_at": 1643364006.484612,
            "feature_flags": [],
            "id": 6,
            "name": "Projet 6",
            "needs_authentication": false,
            "updated_at": 1643364006.59441,
            "color": "#000000"
        }
    ]
}