{
    "count": 22,
    "has_next": true,
    "has_previous": false,
    "page": 1,
    "pages": 2,
    "limit": 10,
    "columns": [],
    "result": [
        {
            "id": 1,
            "uuid": "6c25b7e1-2a95-4046-bfdc-cf75039006b1",
            "name": null,
            "created_at": "2022-08-22T09:17:55.921383Z",
            "updated_at": "2022-08-22T09:21:37.458996Z",
            "attributes": 9794,
            "entity_type": "Entity type 2",
            "last_saved_instance": "2022-10-25T11:05:51.866320Z",
            "org_unit": {
                "id": 2,
                "name": "Bo",
                "short_name": "Bo",
                "parent_id": 1,
                "parent_name": "Sierra Leone",
                "latitude": 2.6574998,
                "longitude": 23.798786,
                "altitude": 0.0,
                "has_geo_json": false,
                "org_unit_type": "org unit type",
                "org_unit_type_id": 1,
                "org_unit_type_depth": 2,
                "source_id": 2,
                "source_name": "source_name",
                "parent": {
                    "id": 1,
                    "name": "Sierra Leone",
                    "parent": null
                }
            },
            "program": null
        },
        {
            "id": 2,
            "uuid": "d47e5e36-1c87-4e47-afb3-3812da8b0df8",
            "name": null,
            "created_at": "2022-09-21T10:28:11.357217Z",
            "updated_at": "2022-09-21T10:28:12.788770Z",
            "attributes": 9803,
            "entity_type": "Entity type 2",
            "last_saved_instance": null,
            "org_unit": {
                "id": 2,
                "name": "Bo",
                "short_name": "Bo",
                "parent_id": 1,
                "parent_name": "Sierra Leone",
                "latitude": 2.6574998,
                "longitude": 23.798786,
                "altitude": 0.0,
                "has_geo_json": false,
                "org_unit_type": "org unit type",
                "org_unit_type_id": 1,
                "org_unit_type_depth": 2,
                "source_id": 2,
                "source_name": "source_name",
                "parent": {
                    "id": 1,
                    "name": "Sierra Leone",
                    "parent": null
                }
            },
            "program": null
        },
        {
            "id": 3,
            "uuid": "18eaf87b-5150-40b2-ae74-e657fb8730c6",
            "name": null,
            "created_at": "2022-09-21T10:28:00.417738Z",
            "updated_at": "2022-09-21T10:28:02.325568Z",
            "attributes": 9802,
            "entity_type": "Entity type 2",
            "last_saved_instance": null,
            "org_unit": {
                "id": 2,
                "name": "Bo",
                "short_name": "Bo",
                "parent_id": 1,
                "parent_name": "Sierra Leone",
                "latitude": 2.6574998,
                "longitude": 23.798786,
                "altitude": 0.0,
                "has_geo_json": false,
                "org_unit_type": "org unit type",
                "org_unit_type_id": 1,
                "org_unit_type_depth": 2,
                "source_id": 2,
                "source_name": "source_name",
                "parent": {
                    "id": 1,
                    "name": "Sierra Leone",
                    "parent": null
                }
            },
            "program": null
        },
        {
            "id": 4,
            "uuid": "2914867c-7c5b-42d7-977c-70ca0d40663a",
            "name": null,
            "created_at": "2022-09-21T10:25:01.524064Z",
            "updated_at": "2022-09-21T10:25:28.938032Z",
            "attributes": 9800,
            "entity_type": "Entity type 2",
            "last_saved_instance": null,
            "org_unit": {
                "id": 2,
                "name": "Bo",
                "short_name": "Bo",
                "parent_id": 1,
                "parent_name": "Sierra Leone",
                "latitude": 2.6574998,
                "longitude": 23.798786,
                "altitude": 0.0,
                "has_geo_json": false,
                "org_unit_type": "org unit type",
                "org_unit_type_id": 1,
                "org_unit_type_depth": 2,
                "source_id": 2,
                "source_name": "source_name",
                "parent": {
                    "id": 1,
                    "name": "Sierra Leone",
                    "parent": null
                }
            },
            "program": null
        },
        {
            "id": 5,
            "uuid": "1b1487fb-c03c-4782-b582-5b20b0559a42",
            "name": null,
            "created_at": "2022-09-21T10:27:50.699703Z",
            "updated_at": "2022-09-21T10:27:50.699725Z",
            "attributes": 9801,
            "entity_type": "Entity type 2",
            "last_saved_instance": null,
            "org_unit": {
                "id": 2,
                "name": "Bo",
                "short_name": "Bo",
                "parent_id": 1,
                "parent_name": "Sierra Leone",
                "latitude": 2.6574998,
                "longitude": 23.798786,
                "altitude": 0.0,
                "has_geo_json": false,
                "org_unit_type": "org unit type",
                "org_unit_type_id": 1,
                "org_unit_type_depth": 2,
                "source_id": 2,
                "source_name": "source_name",
                "parent": {
                    "id": 1,
                    "name": "Sierra Leone",
                    "parent": null
                }
            },
            "program": null
        },
        {
            "id": 6,
            "uuid": "c105c504-302c-40bd-b1a3-db631669bd85",
            "name": null,
            "created_at": "2022-08-22T09:22:05.899102Z",
            "updated_at": "2022-08-22T09:22:05.899122Z",
            "attributes": 9795,
            "entity_type": "Entity type 2",
            "last_saved_instance": null,
            "org_unit": {
                "id": 2,
                "name": "Bo",
                "short_name": "Bo",
                "parent_id": 1,
                "parent_name": "Sierra Leone",
                "latitude": 2.6574998,
                "longitude": 23.798786,
                "altitude": 0.0,
                "has_geo_json": false,
                "org_unit_type": "org unit type",
                "org_unit_type_id": 1,
                "org_unit_type_depth": 2,
                "source_id": 2,
                "source_name": "source_name",
                "parent": {
                    "id": 1,
                    "name": "Sierra Leone",
                    "parent": null
                }
            },
            "program": null
        },
        {
            "id": 7,
            "uuid": "c105c504-302c-40bd-b1a3-db631669bd85",
            "name": null,
            "created_at": "2022-08-22T09:22:05.899102Z",
            "updated_at": "2022-08-22T09:22:05.899122Z",
            "attributes": 9795,
            "entity_type": "Entity type 2",
            "last_saved_instance": null,
            "org_unit": {
                "id": 2,
                "name": "Bo",
                "short_name": "Bo",
                "parent_id": 1,
                "parent_name": "Sierra Leone",
                "latitude": 2.6574998,
                "longitude": 23.798786,
                "altitude": 0.0,
                "has_geo_json": false,
                "org_unit_type": "org unit type",
                "org_unit_type_id": 1,
                "org_unit_type_depth": 2,
                "source_id": 2,
                "source_name": "source_name",
                "parent": {
                    "id": 1,
                    "name": "Sierra Leone",
                    "parent": null
                }
            },
            "program": null
        },
        {
            "id": 8,
            "uuid": "c105c504-302c-40bd-b1a3-db631669bd85",
            "name": null,
            "created_at": "2022-08-22T09:22:05.899102Z",
            "updated_at": "2022-08-22T09:22:05.899122Z",
            "attributes": 9795,
            "entity_type": "Entity type 2",
            "last_saved_instance": null,
            "org_unit": {
                "id": 2,
                "name": "Bo",
                "short_name": "Bo",
                "parent_id": 1,
                "parent_name": "Sierra Leone",
                "latitude": 2.6574998,
                "longitude": 23.798786,
                "altitude": 0.0,
                "has_geo_json": false,
                "org_unit_type": "org unit type",
                "org_unit_type_id": 1,
                "org_unit_type_depth": 2,
                "source_id": 2,
                "source_name": "source_name",
                "parent": {
                    "id": 1,
                    "name": "Sierra Leone",
                    "parent": null
                }
            },
            "program": null
        },
        {
            "id": 9,
            "uuid": "c105c504-302c-40bd-b1a3-db631669bd85",
            "name": null,
            "created_at": "2022-08-22T09:22:05.899102Z",
            "updated_at": "2022-08-22T09:22:05.899122Z",
            "attributes": 9795,
            "entity_type": "Entity type 2",
            "last_saved_instance": null,
            "org_unit": {
                "id": 2,
                "name": "Bo",
                "short_name": "Bo",
                "parent_id": 1,
                "parent_name": "Sierra Leone",
                "latitude": 2.6574998,
                "longitude": 23.798786,
                "altitude": 0.0,
                "has_geo_json": false,
                "org_unit_type": "org unit type",
                "org_unit_type_id": 1,
                "org_unit_type_depth": 2,
                "source_id": 2,
                "source_name": "source_name",
                "parent": {
                    "id": 1,
                    "name": "Sierra Leone",
                    "parent": null
                }
            },
            "program": null
        },
        {
            "id": 10,
            "uuid": "c105c504-302c-40bd-b1a3-db631669bd85",
            "name": null,
            "created_at": "2022-08-22T09:22:05.899102Z",
            "updated_at": "2022-08-22T09:22:05.899122Z",
            "attributes": 9795,
            "entity_type": "Entity type 2",
            "last_saved_instance": null,
            "org_unit": {
                "id": 2,
                "name": "Bo",
                "short_name": "Bo",
                "parent_id": 1,
                "parent_name": "Sierra Leone",
                "latitude": 2.6574998,
                "longitude": 23.798786,
                "altitude": 0.0,
                "has_geo_json": false,
                "org_unit_type": "org unit type",
                "org_unit_type_id": 1,
                "org_unit_type_depth": 2,
                "source_id": 2,
                "source_name": "source_name",
                "parent": {
                    "id": 1,
                    "name": "Sierra Leone",
                    "parent": null
                }
            },
            "program": null
        },
        {
            "id": 11,
            "uuid": "6c25b7e1-2a95-4046-bfdc-cf75039006b1",
            "name": null,
            "created_at": "2022-08-22T09:17:55.921383Z",
            "updated_at": "2022-08-22T09:21:37.458996Z",
            "attributes": 9794,
            "entity_type": "Entity type 2",
            "last_saved_instance": "2022-10-25T11:05:51.866320Z",
            "org_unit": {
                "id": 2,
                "name": "Bo",
                "short_name": "Bo",
                "parent_id": 1,
                "parent_name": "Sierra Leone",
                "latitude": 2.6574998,
                "longitude": 23.798786,
                "altitude": 0.0,
                "has_geo_json": false,
                "org_unit_type": "org unit type",
                "org_unit_type_id": 1,
                "org_unit_type_depth": 2,
                "source_id": 2,
                "source_name": "source_name",
                "parent": {
                    "id": 1,
                    "name": "Sierra Leone",
                    "parent": null
                }
            },
            "program": null
        },
        {
            "id": 12,
            "uuid": "d47e5e36-1c87-4e47-afb3-3812da8b0df8",
            "name": null,
            "created_at": "2022-09-21T10:28:11.357217Z",
            "updated_at": "2022-09-21T10:28:12.788770Z",
            "attributes": 9803,
            "entity_type": "Entity type 2",
            "last_saved_instance": null,
            "org_unit": {
                "id": 2,
                "name": "Bo",
                "short_name": "Bo",
                "parent_id": 1,
                "parent_name": "Sierra Leone",
                "latitude": 2.6574998,
                "longitude": 23.798786,
                "altitude": 0.0,
                "has_geo_json": false,
                "org_unit_type": "org unit type",
                "org_unit_type_id": 1,
                "org_unit_type_depth": 2,
                "source_id": 2,
                "source_name": "source_name",
                "parent": {
                    "id": 1,
                    "name": "Sierra Leone",
                    "parent": null
                }
            },
            "program": null
        },
        {
            "id": 13,
            "uuid": "18eaf87b-5150-40b2-ae74-e657fb8730c6",
            "name": null,
            "created_at": "2022-09-21T10:28:00.417738Z",
            "updated_at": "2022-09-21T10:28:02.325568Z",
            "attributes": 9802,
            "entity_type": "Entity type 2",
            "last_saved_instance": null,
            "org_unit": {
                "id": 2,
                "name": "Bo",
                "short_name": "Bo",
                "parent_id": 1,
                "parent_name": "Sierra Leone",
                "latitude": 2.6574998,
                "longitude": 23.798786,
                "altitude": 0.0,
                "has_geo_json": false,
                "org_unit_type": "org unit type",
                "org_unit_type_id": 1,
                "org_unit_type_depth": 2,
                "source_id": 2,
                "source_name": "source_name",
                "parent": {
                    "id": 1,
                    "name": "Sierra Leone",
                    "parent": null
                }
            },
            "program": null
        },
        {
            "id": 14,
            "uuid": "2914867c-7c5b-42d7-977c-70ca0d40663a",
            "name": null,
            "created_at": "2022-09-21T10:25:01.524064Z",
            "updated_at": "2022-09-21T10:25:28.938032Z",
            "attributes": 9800,
            "entity_type": "Entity type 2",
            "last_saved_instance": null,
            "org_unit": {
                "id": 2,
                "name": "Bo",
                "short_name": "Bo",
                "parent_id": 1,
                "parent_name": "Sierra Leone",
                "latitude": 2.6574998,
                "longitude": 23.798786,
                "altitude": 0.0,
                "has_geo_json": false,
                "org_unit_type": "org unit type",
                "org_unit_type_id": 1,
                "org_unit_type_depth": 2,
                "source_id": 2,
                "source_name": "source_name",
                "parent": {
                    "id": 1,
                    "name": "Sierra Leone",
                    "parent": null
                }
            },
            "program": null
        },
        {
            "id": 15,
            "uuid": "1b1487fb-c03c-4782-b582-5b20b0559a42",
            "name": null,
            "created_at": "2022-09-21T10:27:50.699703Z",
            "updated_at": "2022-09-21T10:27:50.699725Z",
            "attributes": 9801,
            "entity_type": "Entity type 2",
            "last_saved_instance": null,
            "org_unit": {
                "id": 2,
                "name": "Bo",
                "short_name": "Bo",
                "parent_id": 1,
                "parent_name": "Sierra Leone",
                "latitude": 2.6574998,
                "longitude": 23.798786,
                "altitude": 0.0,
                "has_geo_json": false,
                "org_unit_type": "org unit type",
                "org_unit_type_id": 1,
                "org_unit_type_depth": 2,
                "source_id": 2,
                "source_name": "source_name",
                "parent": {
                    "id": 1,
                    "name": "Sierra Leone",
                    "parent": null
                }
            },
            "program": null
        },
        {
            "id": 16,
            "uuid": "c105c504-302c-40bd-b1a3-db631669bd85",
            "name": null,
            "created_at": "2022-08-22T09:22:05.899102Z",
            "updated_at": "2022-08-22T09:22:05.899122Z",
            "attributes": 9795,
            "entity_type": "Entity type 2",
            "last_saved_instance": null,
            "org_unit": {
                "id": 2,
                "name": "Bo",
                "short_name": "Bo",
                "parent_id": 1,
                "parent_name": "Sierra Leone",
                "latitude": 2.6574998,
                "longitude": 23.798786,
                "altitude": 0.0,
                "has_geo_json": false,
                "org_unit_type": "org unit type",
                "org_unit_type_id": 1,
                "org_unit_type_depth": 2,
                "source_id": 2,
                "source_name": "source_name",
                "parent": {
                    "id": 1,
                    "name": "Sierra Leone",
                    "parent": null
                }
            },
            "program": null
        },
        {
            "id": 17,
            "uuid": "c105c504-302c-40bd-b1a3-db631669bd85",
            "name": null,
            "created_at": "2022-08-22T09:22:05.899102Z",
            "updated_at": "2022-08-22T09:22:05.899122Z",
            "attributes": 9795,
            "entity_type": "Entity type 2",
            "last_saved_instance": null,
            "org_unit": {
                "id": 2,
                "name": "Bo",
                "short_name": "Bo",
                "parent_id": 1,
                "parent_name": "Sierra Leone",
                "latitude": 2.6574998,
                "longitude": 23.798786,
                "altitude": 0.0,
                "has_geo_json": false,
                "org_unit_type": "org unit type",
                "org_unit_type_id": 1,
                "org_unit_type_depth": 2,
                "source_id": 2,
                "source_name": "source_name",
                "parent": {
                    "id": 1,
                    "name": "Sierra Leone",
                    "parent": null
                }
            },
            "program": null
        },
        {
            "id": 18,
            "uuid": "c105c504-302c-40bd-b1a3-db631669bd85",
            "name": null,
            "created_at": "2022-08-22T09:22:05.899102Z",
            "updated_at": "2022-08-22T09:22:05.899122Z",
            "attributes": 9795,
            "entity_type": "Entity type 2",
            "last_saved_instance": null,
            "org_unit": {
                "id": 2,
                "name": "Bo",
                "short_name": "Bo",
                "parent_id": 1,
                "parent_name": "Sierra Leone",
                "latitude": 2.6574998,
                "longitude": 23.798786,
                "altitude": 0.0,
                "has_geo_json": false,
                "org_unit_type": "org unit type",
                "org_unit_type_id": 1,
                "org_unit_type_depth": 2,
                "source_id": 2,
                "source_name": "source_name",
                "parent": {
                    "id": 1,
                    "name": "Sierra Leone",
                    "parent": null
                }
            },
            "program": null
        },
        {
            "id": 19,
            "uuid": "c105c504-302c-40bd-b1a3-db631669bd85",
            "name": null,
            "created_at": "2022-08-22T09:22:05.899102Z",
            "updated_at": "2022-08-22T09:22:05.899122Z",
            "attributes": 9795,
            "entity_type": "Entity type 2",
            "last_saved_instance": null,
            "org_unit": {
                "id": 2,
                "name": "Bo",
                "short_name": "Bo",
                "parent_id": 1,
                "parent_name": "Sierra Leone",
                "latitude": 2.6574998,
                "longitude": 23.798786,
                "altitude": 0.0,
                "has_geo_json": false,
                "org_unit_type": "org unit type",
                "org_unit_type_id": 1,
                "org_unit_type_depth": 2,
                "source_id": 2,
                "source_name": "source_name",
                "parent": {
                    "id": 1,
                    "name": "Sierra Leone",
                    "parent": null
                }
            },
            "program": null
        },
        {
            "id": 20,
            "uuid": "c105c504-302c-40bd-b1a3-db631669bd85",
            "name": null,
            "created_at": "2022-08-22T09:22:05.899102Z",
            "updated_at": "2022-08-22T09:22:05.899122Z",
            "attributes": 9795,
            "entity_type": "Entity type 2",
            "last_saved_instance": null,
            "org_unit": {
                "id": 2,
                "name": "Bo",
                "short_name": "Bo",
                "parent_id": 1,
                "parent_name": "Sierra Leone",
                "latitude": 2.6574998,
                "longitude": 23.798786,
                "altitude": 0.0,
                "has_geo_json": false,
                "org_unit_type": "org unit type",
                "org_unit_type_id": 1,
                "org_unit_type_depth": 2,
                "source_id": 2,
                "source_name": "source_name",
                "parent": {
                    "id": 1,
                    "name": "Sierra Leone",
                    "parent": null
                }
            },
            "program": null
        }
    ]
}